<?xml version="1.0" encoding="utf-8"?>
<!-- Generator: Adobe Illustrator 21.0.0, SVG Export Plug-In . SVG Version: 6.00 Build 0)  -->
<svg version="1.1" id="Слой_1" xmlns="http://www.w3.org/2000/svg" xmlns:xlink="http://www.w3.org/1999/xlink" x="0px" y="0px"
	 viewBox="0 0 39 32" enable-background="new 0 0 39 32" xml:space="preserve">
<g>
	<path fill-rule="evenodd" clip-rule="evenodd" fill="#231F20" d="M1407.2,994.6c0.5,0.3,1.1,0.5,1.6,0.8c0.6,0.3,1.3,0.6,1.9,1
		c0.2,0.2,0.4,0.3,0.4,0.6c0.1,0.8,0.2,1.6,0.3,2.4c0.1,0.7,0.2,1.4,0.3,2.2c0.1,0.5,0.1,1,0.2,1.4c0,0.2,0,0.2,0.2,0.2
		c2.2,0,4.3,0,6.5,0c0.1,0,0.2,0,0.2-0.1c0.1-0.3,0.2-0.7,0.3-1c-0.1,0-0.1,0-0.2,0c-2,0-4,0-6,0c-0.2,0-0.5-0.2-0.5-0.4
		c-0.1-0.3,0-0.5,0.2-0.6c0.1,0,0.2-0.1,0.3-0.1c2.1,0,4.2,0,6.3,0c0.1,0,0.2,0,0.2-0.1c0.1-0.4,0.2-0.7,0.3-1.1c0,0,0,0,0-0.1
		c-0.1,0-0.1,0-0.2,0c-2.1,0-4.3,0-6.4,0c-0.3,0-0.5-0.2-0.6-0.5c-0.1-0.3,0.1-0.6,0.3-0.7c0.1,0,0.1,0,0.2,0c2.5,0,4.9,0,7.4,0
		c0.1,0,0.3,0,0.4,0.1c0.2,0.1,0.3,0.3,0.4,0.5c0,0.1,0,0.2,0,0.3c-0.1,0.4-0.3,0.9-0.4,1.3c-0.4,1.2-0.8,2.3-1.2,3.5
		c-0.1,0.4-0.4,0.6-0.8,0.6c-2.5,0-4.9,0-7.4,0c-0.6,0-0.8-0.4-0.9-0.8c-0.1-0.6-0.2-1.2-0.2-1.8c-0.1-0.7-0.2-1.5-0.3-2.2
		c-0.1-0.7-0.2-1.5-0.3-2.2c0-0.4-0.3-0.6-0.6-0.7c-0.6-0.3-1.3-0.6-1.9-0.9c-0.3-0.2-0.6-0.4-0.7-0.8c0-0.1,0-0.2,0-0.2
		c0.1-0.2,0.2-0.4,0.4-0.4C1407.1,994.6,1407.2,994.6,1407.2,994.6z"/>
	<path fill-rule="evenodd" clip-rule="evenodd" fill="#231F20" d="M1412,1007.5c-0.1,0-0.2,0-0.3-0.1c-0.5-0.2-0.7-0.5-0.8-1
		c-0.1-0.5,0.1-0.9,0.5-1.1c0.7-0.5,1.7-0.1,1.9,0.7c0.1,0.7-0.3,1.3-1,1.4c0,0,0,0-0.1,0C1412.2,1007.5,1412.1,1007.5,1412,1007.5z
		"/>
	<path fill-rule="evenodd" clip-rule="evenodd" fill="#231F20" d="M1417.3,1007.5c-0.1,0-0.2-0.1-0.3-0.1c-0.6-0.2-0.9-0.8-0.8-1.4
		c0.1-0.6,0.6-0.9,1.2-0.9c0.7,0,1.3,0.6,1.2,1.3c0,0.6-0.5,1-1,1.1c0,0,0,0-0.1,0C1417.4,1007.5,1417.4,1007.5,1417.3,1007.5z"/>
</g>
<g>
	<path fill-rule="evenodd" clip-rule="evenodd" fill="#FFFFFF" d="M3.1,0c1.3,0.6,2.7,1.3,4,1.9c1.6,0.8,3.2,1.5,4.6,2.6
		c0.5,0.4,0.9,0.8,0.9,1.5c0.2,2,0.5,4,0.8,6c0.2,1.8,0.5,3.6,0.7,5.4c0.2,1.2,0.3,2.4,0.4,3.6c0.1,0.5,0,0.5,0.5,0.5
		c5.4,0,10.7,0,16.1,0c0.3,0,0.4-0.1,0.5-0.4c0.2-0.9,0.5-1.7,0.8-2.6c-0.2,0-0.3,0-0.4,0c-4.9,0-9.9,0-14.8,0c-0.5,0-1.2-0.5-1.3-1
		c-0.2-0.6,0-1.3,0.6-1.6c0.2-0.1,0.5-0.2,0.7-0.2c5.2,0,10.5,0,15.7,0c0.2,0,0.4-0.1,0.4-0.3c0.2-0.9,0.5-1.8,0.8-2.7
		c0-0.1,0-0.1,0-0.2c-0.2,0-0.3,0-0.4,0c-5.3,0-10.6,0-15.9,0c-0.7,0-1.3-0.6-1.4-1.2c-0.2-0.7,0.1-1.4,0.8-1.7
		c0.1-0.1,0.3-0.1,0.4-0.1c6.1,0,12.2,0,18.4,0c0.3,0,0.7,0.1,1,0.2c0.6,0.2,0.8,0.7,0.9,1.2c0,0.2,0,0.5,0,0.7
		c-0.3,1.1-0.7,2.1-1,3.2c-1,2.9-2,5.8-2.9,8.8c-0.3,1-1,1.4-2,1.4c-6.1,0-12.2,0-18.3,0c-1.4,0-2-0.9-2.2-2
		c-0.2-1.5-0.4-2.9-0.6-4.4c-0.2-1.9-0.5-3.7-0.7-5.6c-0.2-1.8-0.5-3.7-0.7-5.5C9.3,6.7,8.8,6.1,8,5.8C6.5,5,4.9,4.3,3.4,3.6
		c-0.8-0.4-1.4-1-1.7-1.9c0-0.2,0-0.4,0-0.6C1.8,0.6,2.1,0.2,2.6,0C2.7,0,2.9,0,3.1,0z"/>
	<path fill-rule="evenodd" clip-rule="evenodd" fill="#FFFFFF" d="M14.9,32c-0.2-0.1-0.4-0.1-0.6-0.2c-1.2-0.4-1.9-1.2-2-2.4
		c-0.2-1.2,0.3-2.2,1.2-2.8c1.7-1.2,4.3-0.2,4.7,1.8c0.3,1.7-0.8,3.3-2.5,3.6c-0.1,0-0.1,0-0.2,0.1C15.3,32,15.1,32,14.9,32z"/>
	<path fill-rule="evenodd" clip-rule="evenodd" fill="#FFFFFF" d="M28.1,32c-0.2-0.1-0.5-0.1-0.7-0.2c-1.4-0.5-2.2-2-1.9-3.4
		c0.3-1.4,1.5-2.3,2.9-2.4c1.8,0,3.1,1.4,3,3.2c-0.1,1.4-1.2,2.6-2.6,2.8c0,0-0.1,0-0.1,0.1C28.4,32,28.2,32,28.1,32z"/>
</g>
</svg>
